src/waveform.vcd
$date
	Wed Jul  1 11:55:51 2026
$end
$version
	Icarus Verilog
$end
$timescale
	1ps
$end
$scope module tb_top_processor $end
$var reg 1 ! clk $end
$var reg 1 " reset $end
$scope module uut $end
$var wire 1 # branch_taken $end
$var wire 1 ! clk $end
$var wire 32 $ jalr_target [31:0] $end
$var wire 1 % reg_write $end
$var wire 1 " reset $end
$var wire 1 & zero $end
$var wire 32 ' write_data [31:0] $end
$var wire 32 ( rs2_data [31:0] $end
$var wire 32 ) rs1_data [31:0] $end
$var wire 1 * reg_write_from_ctrl $end
$var wire 5 + rd_addr [4:0] $end
$var wire 32 , pc_plus_4 [31:0] $end
$var wire 32 - pc [31:0] $end
$var wire 7 . opcode [6:0] $end
$var wire 1 / mem_write $end
$var wire 1 0 mem_to_reg $end
$var wire 32 1 mem_read_data [31:0] $end
$var wire 1 2 mem_read $end
$var wire 32 3 lui_imm [31:0] $end
$var wire 32 4 jump_target [31:0] $end
$var wire 1 5 jump $end
$var wire 32 6 jal_target [31:0] $end
$var wire 1 7 is_lui $end
$var wire 32 8 instr [31:0] $end
$var wire 32 9 imm [31:0] $end
$var wire 1 : funct7_5 $end
$var wire 3 ; funct3 [2:0] $end
$var wire 32 < branch_target [31:0] $end
$var wire 1 = branch $end
$var wire 1 > alu_src $end
$var wire 32 ? alu_result [31:0] $end
$var wire 2 @ alu_op [1:0] $end
$var reg 1 A branch_condition $end
$scope module ctrl_for_regwrite $end
$var wire 7 B opcode [6:0] $end
$var reg 2 C alu_op [1:0] $end
$var reg 1 D alu_src $end
$var reg 1 E branch $end
$var reg 1 F jump $end
$var reg 1 G mem_read $end
$var reg 1 H mem_to_reg $end
$var reg 1 I mem_write $end
$var reg 1 * reg_write $end
$upscope $end
$scope module ex_stage_inst $end
$var wire 3 J funct3 [2:0] $end
$var wire 1 : funct7_5 $end
$var wire 1 & zero $end
$var wire 32 K rs2_data [31:0] $end
$var wire 32 L rs1_data [31:0] $end
$var wire 32 M pc [31:0] $end
$var wire 32 N imm [31:0] $end
$var wire 32 O branch_target [31:0] $end
$var wire 1 > alu_src $end
$var wire 32 P alu_result [31:0] $end
$var wire 2 Q alu_op [1:0] $end
$var wire 4 R alu_ctrl [3:0] $end
$var wire 32 S alu_b [31:0] $end
$scope module alu_control_inst $end
$var wire 3 T funct3 [2:0] $end
$var wire 1 : funct7_5 $end
$var wire 2 U alu_op [1:0] $end
$var reg 4 V alu_ctrl [3:0] $end
$upscope $end
$scope module alu_inst $end
$var wire 4 W alu_ctrl [3:0] $end
$var wire 32 X b [31:0] $end
$var wire 1 & zero $end
$var wire 32 Y a [31:0] $end
$var reg 32 Z result [31:0] $end
$upscope $end
$upscope $end
$scope module id_stage_inst $end
$var wire 1 ! clk $end
$var wire 5 [ rd_addr [4:0] $end
$var wire 1 % reg_write $end
$var wire 32 \ write_data [31:0] $end
$var wire 32 ] rs2_data [31:0] $end
$var wire 5 ^ rs2_addr [4:0] $end
$var wire 32 _ rs1_data [31:0] $end
$var wire 5 ` rs1_addr [4:0] $end
$var wire 7 a opcode [6:0] $end
$var wire 1 / mem_write $end
$var wire 1 0 mem_to_reg $end
$var wire 1 2 mem_read $end
$var wire 1 5 jump $end
$var wire 32 b instr [31:0] $end
$var wire 32 c imm [31:0] $end
$var wire 1 = branch $end
$var wire 1 > alu_src $end
$var wire 2 d alu_op [1:0] $end
$scope module control_unit_inst $end
$var wire 7 e opcode [6:0] $end
$var reg 2 f alu_op [1:0] $end
$var reg 1 > alu_src $end
$var reg 1 = branch $end
$var reg 1 5 jump $end
$var reg 1 2 mem_read $end
$var reg 1 0 mem_to_reg $end
$var reg 1 / mem_write $end
$var reg 1 g reg_write $end
$upscope $end
$scope module imm_gen_inst $end
$var wire 7 h opcode [6:0] $end
$var wire 32 i instr [31:0] $end
$var reg 32 j imm [31:0] $end
$upscope $end
$scope module reg_file_inst $end
$var wire 1 ! clk $end
$var wire 5 k rd_addr [4:0] $end
$var wire 1 % reg_write $end
$var wire 5 l rs1_addr [4:0] $end
$var wire 5 m rs2_addr [4:0] $end
$var wire 32 n write_data [31:0] $end
$var wire 32 o rs2_data [31:0] $end
$var wire 32 p rs1_data [31:0] $end
$var integer 32 q i [31:0] $end
$upscope $end
$upscope $end
$scope module if_stage_inst $end
$var wire 1 # branch_taken $end
$var wire 32 r branch_target [31:0] $end
$var wire 1 ! clk $end
$var wire 32 s instr [31:0] $end
$var wire 1 5 jump $end
$var wire 32 t jump_target [31:0] $end
$var wire 32 u next_pc_seq [31:0] $end
$var wire 1 " reset $end
$var wire 32 v pc_plus_4 [31:0] $end
$var wire 32 w pc_after_branch [31:0] $end
$var wire 32 x next_pc [31:0] $end
$var reg 32 y pc [31:0] $end
$upscope $end
$scope module mem_stage_inst $end
$var wire 32 z alu_result [31:0] $end
$var wire 1 ! clk $end
$var wire 1 2 mem_read $end
$var wire 1 / mem_write $end
$var wire 32 { store_data [31:0] $end
$var wire 32 | mem_read_data [31:0] $end
$upscope $end
$scope module wb_stage_inst $end
$var wire 32 } alu_result [31:0] $end
$var wire 1 7 is_lui $end
$var wire 1 5 jump $end
$var wire 32 ~ lui_imm [31:0] $end
$var wire 32 !" mem_read_data [31:0] $end
$var wire 1 0 mem_to_reg $end
$var wire 32 "" pc_plus_4 [31:0] $end
$var wire 32 #" write_data [31:0] $end
$var wire 32 $" with_jump [31:0] $end
$var wire 32 %" alu_or_mem [31:0] $end
$upscope $end
$upscope $end
$upscope $end
$enddefinitions $end
$comment Show the parameter values. $end
$dumpall
$end
#0
$dumpvars
bx %"
bx $"
bx #"
bx ""
bx !"
bx000000000000 ~
bx }
bx |
bx {
bx z
bx y
bx x
bx w
bx v
bx u
bx t
bx s
bx r
b100000 q
bx p
bx o
bx n
bx m
bx l
bx k
bx j
bx i
bx h
xg
bx f
bx e
bx d
bx c
bx b
bx a
bx `
bx _
bx ^
bx ]
bx \
bx [
bx Z
bx Y
bx X
bx W
bx V
bx U
bx T
bx S
bx R
bx Q
bx P
bx O
bx N
bx M
bx L
bx K
bx J
xI
xH
xG
xF
xE
xD
bx C
bx B
xA
bx @
bx ?
x>
x=
bx <
bx ;
x:
bx 9
bx 8
x7
bx 6
x5
bx 4
bx000000000000 3
x2
bx 1
x0
x/
bx .
bx -
bx ,
bx +
x*
bx )
bx (
bx '
x&
x%
bx0 $
x#
1"
0!
$end
#5000
b0 $"
b0 %"
0#
b0 1
b0 |
b0 !"
b0 S
b0 X
b10010001101000101000000000000 $
1A
1&
b0 ?
b0 P
b0 Z
b0 z
b0 }
b100 x
b0 @
b0 Q
b0 U
b0 d
b0 f
00
05
0=
0/
02
0>
1g
b0 (
b0 K
b0 ]
b0 o
b0 {
b0 )
b0 L
b0 Y
b0 _
b0 p
b10010001101000101000000000000 '
b10010001101000101000000000000 \
b10010001101000101000000000000 n
b10010001101000101000000000000 #"
b0 C
0H
0F
0E
0I
0G
0D
1%
1*
b10 R
b10 V
b10 W
b100 w
b10010001101000101000000000000 4
b10010001101000101000000000000 t
b110111 h
b110111 a
b110111 e
b11 ^
b11 m
b1000 `
b1000 l
b10010001101000101000000000000 3
b10010001101000101000000000000 ~
17
b110111 .
b110111 B
0:
b101 ;
b101 J
b101 T
b1 +
b1 [
b1 k
b10010001101000101000000000000 <
b10010001101000101000000000000 O
b10010001101000101000000000000 r
b10010001101000101000000000000 6
b10010001101000101000000000000 9
b10010001101000101000000000000 N
b10010001101000101000000000000 c
b10010001101000101000000000000 j
b10010001101000101000010110111 8
b10010001101000101000010110111 b
b10010001101000101000010110111 i
b10010001101000101000010110111 s
b100 u
b100 ,
b100 v
b100 ""
b0 -
b0 M
b0 y
1!
#10000
0!
0"
#15000
b1100100 $"
0A
b1100100 %"
0&
b1100100 ?
b1100100 P
b1100100 Z
b1100100 z
b1100100 }
b1100100 S
b1100100 X
b11 @
b11 Q
b11 U
b11 d
b11 f
1>
1g
b1100100 '
b1100100 \
b1100100 n
b1100100 #"
b11 C
1D
1%
1*
b1100100 $
b1000 x
b10011 h
b10011 a
b10011 e
b100 ^
b100 m
b0 `
b0 l
b110010000000000000000000000 3
b110010000000000000000000000 ~
07
b10011 .
b10011 B
b0 ;
b0 J
b0 T
b10 +
b10 [
b10 k
b1100100 9
b1100100 N
b1100100 c
b1100100 j
b1000 w
b110010000000000000100010011 8
b110010000000000000100010011 b
b110010000000000000100010011 i
b110010000000000000100010011 s
b1101000 4
b1101000 t
b1000 u
b1000 ,
b1000 v
b1000 ""
b1101000 <
b1101000 O
b1101000 r
b1101000 6
b100 -
b100 M
b100 y
1!
#20000
0!
#25000
b1 '
b1 \
b1 n
b1 #"
b1 $"
b1 %"
b1 ?
b1 P
b1 Z
b1 z
b1 }
b1100100 )
b1100100 L
b1100100 Y
b1100100 _
b1100100 p
b100 R
b100 V
b100 W
b11001000 S
b11001000 X
b100101100 $
b1100 x
b1000 ^
b1000 m
b10 `
b10 l
b1100100000010010000000000000 3
b1100100000010010000000000000 ~
b10 ;
b10 J
b10 T
b11 +
b11 [
b11 k
b11001000 9
b11001000 N
b11001000 c
b11001000 j
b1100 w
b1100100000010010000110010011 8
b1100100000010010000110010011 b
b1100100000010010000110010011 i
b1100100000010010000110010011 s
b11010000 4
b11010000 t
b1100 u
b1100 ,
b1100 v
b1100 ""
b11010000 <
b11010000 O
b11010000 r
b11010000 6
b1000 -
b1000 M
b1000 y
1!
#30000
0!
#35000
b0 '
b0 \
b0 n
b0 #"
b0 $"
b0 %"
1&
b0 ?
b0 P
b0 Z
b0 z
b0 }
b11 R
b11 V
b11 W
b110010 S
b110010 X
b10010110 $
b10000 x
b10010 ^
b10010 m
b11001000010011000000000000 3
b11001000010011000000000000 ~
b11 ;
b11 J
b11 T
b100 +
b100 [
b100 k
b110010 9
b110010 N
b110010 c
b110010 j
b10000 w
b11001000010011001000010011 8
b11001000010011001000010011 b
b11001000010011001000010011 i
b11001000010011001000010011 s
b111110 4
b111110 t
b10000 u
b10000 ,
b10000 v
b10000 ""
b111110 <
b111110 O
b111110 r
b111110 6
b1100 -
b1100 M
b1100 y
1!
#40000
0!
#45000
b10011011 '
b10011011 \
b10011011 n
b10011011 #"
b10011011 $"
b10011011 %"
0&
b10011011 ?
b10011011 P
b10011011 Z
b10011011 z
b10011011 }
b1000 R
b1000 V
b1000 W
b11111111 S
b11111111 X
b101100010 $
b10100 x
b11111 ^
b11111 m
b1111111100010100000000000000 3
b1111111100010100000000000000 ~
b100 ;
b100 J
b100 T
b101 +
b101 [
b101 k
b11111111 9
b11111111 N
b11111111 c
b11111111 j
b10100 w
b1111111100010100001010010011 8
b1111111100010100001010010011 b
b1111111100010100001010010011 i
b1111111100010100001010010011 s
b100001111 4
b100001111 t
b10100 u
b10100 ,
b10100 v
b10100 ""
b100001111 <
b100001111 O
b100001111 r
b100001111 6
b10000 -
b10000 M
b10000 y
1!
#50000
0!
#55000
b11110100 '
b11110100 \
b11110100 n
b11110100 #"
b11110100 $"
b11110100 %"
b11110100 ?
b11110100 P
b11110100 Z
b11110100 z
b11110100 }
b1001 R
b1001 V
b1001 W
b11110000 S
b11110000 X
b101010100 $
b11000 x
b10000 ^
b10000 m
b1111000000010110000000000000 3
b1111000000010110000000000000 ~
b110 ;
b110 J
b110 T
b110 +
b110 [
b110 k
b11110000 9
b11110000 N
b11110000 c
b11110000 j
b11000 w
b1111000000010110001100010011 8
b1111000000010110001100010011 b
b1111000000010110001100010011 i
b1111000000010110001100010011 s
b100000100 4
b100000100 t
b11000 u
b11000 ,
b11000 v
b11000 ""
b100000100 <
b100000100 O
b100000100 r
b100000100 6
b10100 -
b10100 M
b10100 y
1!
#60000
0!
#65000
b100 '
b100 \
b100 n
b100 #"
b100 $"
b100 %"
b100 ?
b100 P
b100 Z
b100 z
b100 }
b1010 R
b1010 V
b1010 W
1A
b1111 S
b1111 X
b1110010 $
b11100 x
b1111 ^
b1111 m
b111100010111000000000000 3
b111100010111000000000000 ~
b111 ;
b111 J
b111 T
b111 +
b111 [
b111 k
b1111 9
b1111 N
b1111 c
b1111 j
b11100 w
b111100010111001110010011 8
b111100010111001110010011 b
b111100010111001110010011 i
b111100010111001110010011 s
b100111 4
b100111 t
b11100 u
b11100 ,
b11100 v
b11100 ""
b100111 <
b100111 O
b100111 r
b100111 6
b11000 -
b11000 M
b11000 y
1!
#70000
0!
#75000
b110010000 '
b110010000 \
b110010000 n
b110010000 #"
b110010000 $"
b110010000 %"
b110010000 ?
b110010000 P
b110010000 Z
b110010000 z
b110010000 }
b1100100 (
b1100100 K
b1100100 ]
b1100100 o
b1100100 {
b101 R
b101 V
b101 W
b10 S
b10 X
b1100110 $
b100000 x
b10 ^
b10 m
b1000010001000000000000 3
b1000010001000000000000 ~
b1 ;
b1 J
b1 T
b1000 +
b1000 [
b1000 k
b10 9
b10 N
b10 c
b10 j
b100000 w
b1000010001010000010011 8
b1000010001010000010011 b
b1000010001010000010011 i
b1000010001010000010011 s
b11110 4
b11110 t
b100000 u
b100000 ,
b100000 v
b100000 ""
b11110 <
b11110 O
b11110 r
b11110 6
b11100 -
b11100 M
b11100 y
1!
#80000
0!
#85000
b110010 '
b110010 \
b110010 n
b110010 #"
b110010 $"
b110010 %"
0A
b110010 ?
b110010 P
b110010 Z
b110010 z
b110010 }
b10010001101000101000000000000 (
b10010001101000101000000000000 K
b10010001101000101000000000000 ]
b10010001101000101000000000000 o
b10010001101000101000000000000 {
b111 R
b111 V
b111 W
b1 S
b1 X
b1100100 $
b100100 x
b1 ^
b1 m
b100010101000000000000 3
b100010101000000000000 ~
b101 ;
b101 J
b101 T
b1001 +
b1001 [
b1001 k
b1 9
b1 N
b1 c
b1 j
b100100 w
b100010101010010010011 8
b100010101010010010011 b
b100010101010010010011 i
b100010101010010010011 s
b100001 4
b100001 t
b100100 u
b100100 ,
b100100 v
b100100 ""
b100001 <
b100001 O
b100001 r
b100001 6
b100000 -
b100000 M
b100000 y
1!
#90000
0!
#95000
b1100 R
b1100 V
b1100 W
b10000000001 S
b10000000001 X
b10001100100 $
b101000 x
b1000000000100010101000000000000 3
b1000000000100010101000000000000 ~
1:
b1010 +
b1010 [
b1010 k
b10000000001 9
b10000000001 N
b10000000001 c
b10000000001 j
b101000 w
b1000000000100010101010100010011 8
b1000000000100010101010100010011 b
b1000000000100010101010100010011 i
b1000000000100010101010100010011 s
b10000100101 4
b10000100101 t
b101000 u
b101000 ,
b101000 v
b101000 ""
b10000100101 <
b10000100101 O
b10000100101 r
b10000100101 6
b100100 -
b100100 M
b100100 y
1!
#100000
0!
#105000
b111110100 '
b111110100 \
b111110100 n
b111110100 #"
b111110100 $"
b111110100 %"
b111110100 ?
b111110100 P
b111110100 Z
b111110100 z
b111110100 }
b10 @
b10 Q
b10 U
b10 d
b10 f
0>
1g
b110010000 (
b110010000 K
b110010000 ]
b110010000 o
b110010000 {
b10 C
0D
1%
1*
b10 R
b10 V
b10 W
b110010000 S
b110010000 X
b1100100 $
b101100 x
b110011 h
b110011 a
b110011 e
b1000 ^
b1000 m
b100000010000000000000000 3
b100000010000000000000000 ~
b110011 .
b110011 B
0:
b0 ;
b0 J
b0 T
b1011 +
b1011 [
b1011 k
b0 9
b0 N
b0 c
b0 j
b101100 w
b100000010000010110110011 8
b100000010000010110110011 b
b100000010000010110110011 i
b100000010000010110110011 s
b101000 4
b101000 t
b101100 u
b101100 ,
b101100 v
b101100 ""
b101000 <
b101000 O
b101000 r
b101000 6
b101000 -
b101000 M
b101000 y
1!
#110000
0!
#115000
b100101100 '
b100101100 \
b100101100 n
b100101100 #"
b100101100 $"
b100101100 %"
b1100100 S
b1100100 X
b110010000 $
0A
0&
b100101100 ?
b100101100 P
b100101100 Z
b100101100 z
b100101100 }
b1100100 (
b1100100 K
b1100100 ]
b1100100 o
b1100100 {
b110010000 )
b110010000 L
b110010000 Y
b110010000 _
b110010000 p
b110 R
b110 V
b110 W
b110000 x
b10 ^
b10 m
b1000 `
b1000 l
b1000000001001000000000000000000 3
b1000000001001000000000000000000 ~
1:
b1100 +
b1100 [
b1100 k
b110000 w
b1000000001001000000011000110011 8
b1000000001001000000011000110011 b
b1000000001001000000011000110011 i
b1000000001001000000011000110011 s
b101100 4
b101100 t
b110000 u
b110000 ,
b110000 v
b110000 ""
b101100 <
b101100 O
b101100 r
b101100 6
b101100 -
b101100 M
b101100 y
1!
#120000
0!
#125000
b11001000000 '
b11001000000 \
b11001000000 n
b11001000000 #"
b11001000000 $"
b11001000000 %"
b1100100 $
b11001000000 ?
b11001000000 P
b11001000000 Z
b11001000000 z
b11001000000 }
b1100100 )
b1100100 L
b1100100 Y
b1100100 _
b1100100 p
b101 R
b101 V
b101 W
1A
b110100 x
b10 `
b10 l
b1000010001000000000000 3
b1000010001000000000000 ~
0:
b1 ;
b1 J
b1 T
b1101 +
b1101 [
b1101 k
b110100 w
b1000010001011010110011 8
b1000010001011010110011 b
b1000010001011010110011 i
b1000010001011010110011 s
b110000 4
b110000 t
b110100 u
b110100 ,
b110100 v
b110100 ""
b110000 <
b110000 O
b110000 r
b110000 6
b110000 -
b110000 M
b110000 y
1!
#130000
0!
#135000
b1 '
b1 \
b1 n
b1 #"
b1 $"
b1 %"
b110010000 S
b110010000 X
0&
b1 ?
b1 P
b1 Z
b1 z
b1 }
b110010000 (
b110010000 K
b110010000 ]
b110010000 o
b110010000 {
b100 R
b100 V
b100 W
0A
b111000 x
b1000 ^
b1000 m
b100000010010000000000000 3
b100000010010000000000000 ~
b10 ;
b10 J
b10 T
b1110 +
b1110 [
b1110 k
b111000 w
b100000010010011100110011 8
b100000010010011100110011 b
b100000010010011100110011 i
b100000010010011100110011 s
b110100 4
b110100 t
b111000 u
b111000 ,
b111000 v
b111000 ""
b110100 <
b110100 O
b110100 r
b110100 6
b110100 -
b110100 M
b110100 y
1!
#140000
0!
#145000
b0 '
b0 \
b0 n
b0 #"
b0 $"
b0 %"
b1100100 S
b1100100 X
b110010000 $
1&
b0 ?
b0 P
b0 Z
b0 z
b0 }
b1100100 (
b1100100 K
b1100100 ]
b1100100 o
b1100100 {
b110010000 )
b110010000 L
b110010000 Y
b110010000 _
b110010000 p
b11 R
b11 V
b11 W
b111100 x
b10 ^
b10 m
b1000 `
b1000 l
b1001000011000000000000 3
b1001000011000000000000 ~
b11 ;
b11 J
b11 T
b1111 +
b1111 [
b1111 k
b111100 w
b1001000011011110110011 8
b1001000011011110110011 b
b1001000011011110110011 i
b1001000011011110110011 s
b111000 4
b111000 t
b111100 u
b111100 ,
b111100 v
b111100 ""
b111000 <
b111000 O
b111000 r
b111000 6
b111000 -
b111000 M
b111000 y
1!
#150000
0!
#155000
b10010000 '
b10010000 \
b10010000 n
b10010000 #"
b10010000 $"
b10010000 %"
0&
b10010000 ?
b10010000 P
b10010000 Z
b10010000 z
b10010000 }
b11110100 S
b11110100 X
b1100100 $
1A
b11110100 (
b11110100 K
b11110100 ]
b11110100 o
b11110100 {
b1100100 )
b1100100 L
b1100100 Y
b1100100 _
b1100100 p
b1000 R
b1000 V
b1000 W
b1000000 x
b110 ^
b110 m
b10 `
b10 l
b11000010100000000000000 3
b11000010100000000000000 ~
b100 ;
b100 J
b100 T
b10000 +
b10000 [
b10000 k
b1000000 w
b11000010100100000110011 8
b11000010100100000110011 b
b11000010100100000110011 i
b11000010100100000110011 s
b111100 4
b111100 t
b1000000 u
b1000000 ,
b1000000 v
b1000000 ""
b111100 <
b111100 O
b111100 r
b111100 6
b111100 -
b111100 M
b111100 y
1!
#160000
0!
#165000
b11001 '
b11001 \
b11001 n
b11001 #"
b11001 $"
b11001 %"
b1100100 S
b1100100 X
b110010000 $
0&
b11001 ?
b11001 P
b11001 Z
b11001 z
b11001 }
b1100100 (
b1100100 K
b1100100 ]
b1100100 o
b1100100 {
b110010000 )
b110010000 L
b110010000 Y
b110010000 _
b110010000 p
b111 R
b111 V
b111 W
1A
b1000100 x
b10 ^
b10 m
b1000 `
b1000 l
b1001000101000000000000 3
b1001000101000000000000 ~
b101 ;
b101 J
b101 T
b10001 +
b10001 [
b10001 k
b1000100 w
b1001000101100010110011 8
b1001000101100010110011 b
b1001000101100010110011 i
b1001000101100010110011 s
b1000000 4
b1000000 t
b1000100 u
b1000100 ,
b1000100 v
b1000100 ""
b1000000 <
b1000000 O
b1000000 r
b1000000 6
b1000000 -
b1000000 M
b1000000 y
1!
#170000
0!
#175000
b1100 R
b1100 V
b1100 W
b1001000 x
b1000000001001000101000000000000 3
b1000000001001000101000000000000 ~
1:
b10010 +
b10010 [
b10010 k
b1001000 w
b1000000001001000101100100110011 8
b1000000001001000101100100110011 b
b1000000001001000101100100110011 i
b1000000001001000101100100110011 s
b1000100 4
b1000100 t
b1001000 u
b1001000 ,
b1001000 v
b1001000 ""
b1000100 <
b1000100 O
b1000100 r
b1000100 6
b1000100 -
b1000100 M
b1000100 y
1!
#180000
0!
#185000
b11110100 '
b11110100 \
b11110100 n
b11110100 #"
b11110100 $"
b11110100 %"
b11110100 S
b11110100 X
b1100100 $
b11110100 ?
b11110100 P
b11110100 Z
b11110100 z
b11110100 }
b11110100 (
b11110100 K
b11110100 ]
b11110100 o
b11110100 {
b1100100 )
b1100100 L
b1100100 Y
b1100100 _
b1100100 p
b1001 R
b1001 V
b1001 W
1A
b1001100 x
b110 ^
b110 m
b10 `
b10 l
b11000010110000000000000 3
b11000010110000000000000 ~
0:
b110 ;
b110 J
b110 T
b10011 +
b10011 [
b10011 k
b1001100 w
b11000010110100110110011 8
b11000010110100110110011 b
b11000010110100110110011 i
b11000010110100110110011 s
b1001000 4
b1001000 t
b1001100 u
b1001100 ,
b1001100 v
b1001100 ""
b1001000 <
b1001000 O
b1001000 r
b1001000 6
b1001000 -
b1001000 M
b1001000 y
1!
#190000
0!
#195000
b100 '
b100 \
b100 n
b100 #"
b100 $"
b100 %"
b100 S
b100 X
b100 ?
b100 P
b100 Z
b100 z
b100 }
b100 (
b100 K
b100 ]
b100 o
b100 {
b1010 R
b1010 V
b1010 W
1A
b1010000 x
b111 ^
b111 m
b11100010111000000000000 3
b11100010111000000000000 ~
b111 ;
b111 J
b111 T
b10100 +
b10100 [
b10100 k
b1010000 w
b11100010111101000110011 8
b11100010111101000110011 b
b11100010111101000110011 i
b11100010111101000110011 s
b1001100 4
b1001100 t
b1010000 u
b1010000 ,
b1010000 v
b1010000 ""
b1001100 <
b1001100 O
b1001100 r
b1001100 6
b1001100 -
b1001100 M
b1001100 y
1!
#200000
0!
#205000
b100000000 '
b100000000 \
b100000000 n
b100000000 #"
b100000000 $"
b100000000 %"
b100000000 ?
b100000000 P
b100000000 Z
b100000000 z
b100000000 }
b100000000 S
b100000000 X
b100000000 $
b100000000 9
b100000000 N
b100000000 c
b100000000 j
1>
b11 @
b11 Q
b11 U
b11 d
b11 f
1g
b0 (
b0 K
b0 ]
b0 o
b0 {
b0 )
b0 L
b0 Y
b0 _
b0 p
1D
b11 C
1%
1*
b10 R
b10 V
b10 W
0A
b1010100 x
b10011 h
b10011 a
b10011 e
b0 ^
b0 m
b0 `
b0 l
b10000000000000000000000000000 3
b10000000000000000000000000000 ~
b10011 .
b10011 B
b0 ;
b0 J
b0 T
b10101 +
b10101 [
b10101 k
b1010100 w
b10000000000000000101010010011 8
b10000000000000000101010010011 b
b10000000000000000101010010011 i
b10000000000000000101010010011 s
b101010000 4
b101010000 t
b1010100 u
b1010100 ,
b1010100 v
b1010100 ""
b101010000 <
b101010000 O
b101010000 r
b101010000 6
b1010000 -
b1010000 M
b1010000 y
1!
#210000
0!
#215000
b100000000 '
b100000000 \
b100000000 n
b100000000 #"
b100000000 $"
b100000000 %"
0&
b100000000 ?
b100000000 P
b100000000 Z
b100000000 z
b100000000 }
1/
b0 @
b0 Q
b0 U
b0 d
b0 f
1>
0g
b1100100 (
b1100100 K
b1100100 ]
b1100100 o
b1100100 {
b100000000 )
b100000000 L
b100000000 Y
b100000000 _
b100000000 p
1I
b0 C
1D
0%
0*
b10 R
b10 V
b10 W
b0 S
b0 X
b100000000 $
b1011000 x
b100011 h
b100011 a
b100011 e
b10 ^
b10 m
b10101 `
b10101 l
b1010101010000000000000 3
b1010101010000000000000 ~
b100011 .
b100011 B
b10 ;
b10 J
b10 T
b0 +
b0 [
b0 k
b0 9
b0 N
b0 c
b0 j
b1011000 w
b1010101010000000100011 8
b1010101010000000100011 b
b1010101010000000100011 i
b1010101010000000100011 s
b1010100 4
b1010100 t
b1011000 u
b1011000 ,
b1011000 v
b1011000 ""
b1010100 <
b1010100 O
b1010100 r
b1010100 6
b1010100 -
b1010100 M
b1010100 y
1!
#220000
0!
#225000
b1100100 '
b1100100 \
b1100100 n
b1100100 #"
b1100100 $"
b1100100 %"
b1100100 1
b1100100 |
b1100100 !"
b100000000 ?
b100000000 P
b100000000 Z
b100000000 z
b100000000 }
10
12
1g
0/
1>
b0 (
b0 K
b0 ]
b0 o
b0 {
1H
1G
1%
1*
0I
1D
b0 S
b0 X
b100000000 $
b1011100 x
b11 h
b11 a
b11 e
b0 ^
b0 m
b10101010000000000000 3
b10101010000000000000 ~
b11 .
b11 B
b10111 +
b10111 [
b10111 k
b0 9
b0 N
b0 c
b0 j
b1011100 w
b10101010101110000011 8
b10101010101110000011 b
b10101010101110000011 i
b10101010101110000011 s
b1011000 4
b1011000 t
b1011100 u
b1011100 ,
b1011100 v
b1011100 ""
b1011000 <
b1011000 O
b1011000 r
b1011000 6
b1011000 -
b1011000 M
b1011000 y
1!
#230000
0!
#235000
b101 '
b101 \
b101 n
b101 #"
b101 $"
b101 %"
b0 1
b0 |
b0 !"
b101 ?
b101 P
b101 Z
b101 z
b101 }
b11 @
b11 Q
b11 U
b11 d
b11 f
00
02
1>
1g
b10011011 (
b10011011 K
b10011011 ]
b10011011 o
b10011011 {
b0 )
b0 L
b0 Y
b0 _
b0 p
b11 C
0H
0G
1D
1%
1*
b101 S
b101 X
b100 $
b1100000 x
b10011 h
b10011 a
b10011 e
b101 ^
b101 m
b0 `
b0 l
b10100000000000000000000 3
b10100000000000000000000 ~
b10011 .
b10011 B
b0 ;
b0 J
b0 T
b11000 +
b11000 [
b11000 k
b101 9
b101 N
b101 c
b101 j
b1100000 w
b10100000000110000010011 8
b10100000000110000010011 b
b10100000000110000010011 i
b10100000000110000010011 s
b1100001 4
b1100001 t
b1100000 u
b1100000 ,
b1100000 v
b1100000 ""
b1100001 <
b1100001 O
b1100001 r
b1100001 6
b1011100 -
b1011100 M
b1011100 y
1!
#240000
0!
#245000
b1100100 x
b11001 +
b11001 [
b11001 k
b1100100 w
b10100000000110010010011 8
b10100000000110010010011 b
b10100000000110010010011 i
b10100000000110010010011 s
b1100101 4
b1100101 t
b1100100 u
b1100100 ,
b1100100 v
b1100100 ""
b1100101 <
b1100101 O
b1100101 r
b1100101 6
b1100000 -
b1100000 M
b1100000 y
1!
#250000
0!
#255000
1#
b0 '
b0 \
b0 n
b0 #"
1A
b0 $"
1&
b0 %"
b110 R
b110 V
b110 W
b0 ?
b0 P
b0 Z
b0 z
b0 }
1=
b1 @
b1 Q
b1 U
b1 d
b1 f
0>
0g
b101 (
b101 K
b101 ]
b101 o
b101 {
b101 )
b101 L
b101 Y
b101 _
b101 p
1E
b1 C
0D
0%
0*
b101 S
b101 X
b1100 $
b1101100 x
b1100011 h
b1100011 a
b1100011 e
b11001 ^
b11001 m
b11000 `
b11000 l
b1100111000000000000000000 3
b1100111000000000000000000 ~
b1100011 .
b1100011 B
b1000 +
b1000 [
b1000 k
b1000 9
b1000 N
b1000 c
b1000 j
b1101100 w
b1100111000000010001100011 8
b1100111000000010001100011 b
b1100111000000010001100011 i
b1100111000000010001100011 s
b1101100 4
b1101100 t
b1101000 u
b1101000 ,
b1101000 v
b1101000 ""
b1101100 <
b1101100 O
b1101100 r
b1101100 6
b1100100 -
b1100100 M
b1100100 y
1!
#260000
0!
#265000
b0 '
b0 \
b0 n
b0 #"
b0 $"
b0 %"
b10 R
b10 V
b10 W
0#
b0 S
b0 X
1A
1&
b0 ?
b0 P
b0 Z
b0 z
b0 }
1>
1g
b11 @
b11 Q
b11 U
b11 d
b11 f
0=
b0 (
b0 K
b0 ]
b0 o
b0 {
b0 )
b0 L
b0 Y
b0 _
b0 p
1D
1%
1*
b11 C
0E
b0 $
b10011 h
b10011 a
b10011 e
b0 ^
b0 m
b0 `
b0 l
b0 3
b0 ~
b10011 .
b10011 B
b11010 +
b11010 [
b11010 k
b0 9
b0 N
b0 c
b0 j
b1110000 x
b110100010011 8
b110100010011 b
b110100010011 i
b110100010011 s
b1110000 w
b1101100 4
b1101100 t
b1110000 u
b1110000 ,
b1110000 v
b1110000 ""
b1101100 <
b1101100 O
b1101100 r
b1101100 6
b1101100 -
b1101100 M
b1101100 y
1!
#270000
0!
#275000
b101 '
b101 \
b101 n
b101 #"
b101 $"
1#
b101 %"
0&
b101 ?
b101 P
b101 Z
b101 z
b101 }
1=
b1 @
b1 Q
b1 U
b1 d
b1 f
0>
0g
b101 )
b101 L
b101 Y
b101 _
b101 p
1E
b1 C
0D
0%
0*
b110 R
b110 V
b110 W
1A
b0 S
b0 X
b1100 $
b1111000 x
b1100011 h
b1100011 a
b1100011 e
b11010 ^
b11010 m
b11000 `
b11000 l
b1101011000001000000000000 3
b1101011000001000000000000 ~
b1100011 .
b1100011 B
b1 ;
b1 J
b1 T
b1000 +
b1000 [
b1000 k
b1000 9
b1000 N
b1000 c
b1000 j
b1111000 w
b1101011000001010001100011 8
b1101011000001010001100011 b
b1101011000001010001100011 i
b1101011000001010001100011 s
b1111000 4
b1111000 t
b1110100 u
b1110100 ,
b1110100 v
b1110100 ""
b1111000 <
b1111000 O
b1111000 r
b1111000 6
b1110000 -
b1110000 M
b1110000 y
1!
